{
    "name": "название ресурса6",
    "items": [
        {
            "id": 1,
            "name": "Статья 1",
            "sorce": "https://www.google.com/"
        },
        {
            "id": 2,
            "name": "Статья 2",
            "sorce": "https://www.google.com/"
        },
        {
            "id": 3,
            "name": "Статья 3",
            "sorce": "https://www.google.com/"
        },
        {
            "id": 4,
            "name": "Статья 4",
            "sorce": "https://www.google.com/"
        },
        {
            "id": 5,
            "name": "Статья 5",
            "sorce": "https://www.google.com/"
        },
        {
            "id": 6,
            "name": "Статья 6",
            "sorce": "https://www.google.com/"
        }
    ]
}